{
    "plugin": {
        "name": "WWT - Blog",
        "description": "WWT Blog Extension for additional blog areas",
        "stable_version": "2.4.1",
        "versions": {
            "1.0.0": "Base WWT Blog plugin setup",
            "1.0.1": "Added: New functionality to support two additional blogs [Waterlife Online/Duck Diaries]",
            "1.0.2": "General maintenance and updates to how custom blogs are handled. Added: Tag pages to individual blogs",
            "1.0.3": "Setup filters on blog listings to remove unnecessary categories",
            "1.0.4": "Allow blog posts to render content from shortcodes/modules",
            "1.0.5": "Allow blog landing pages to accomodate page content and shortcodes",
            "1.1.0": "System maintenance, improvements and compatibility for HB3 v1.1.16",
            "1.1.1": "System maintenance and improvements for taxonomy based URLs",
            "1.2.0": "System maintenance and improvements for project TBX-353069",
            "1.2.1": "System maintenance",
            "1.2.2": "System maintenance",
            "1.2.3": "System maintenance and new Blog added (TBX-25361981)",
            "1.2.4": "System maintenance and updates",
            "1.2.6": "System maintenance and updates",
            "1.2.5": "System maintenance and updates",
            "1.3.0": "System maintenance, updates for HB3 compatiblity (v1.7)",
            "1.3.1": "System maintenance and updates",
            "1.3.2": "WWT-26068463: Fixed helper that allows us to get the correct URL for blog 'feeds'",
            "1.4.0": "System maintenance and updates",
            "1.4.1": "System maintenance and updates",
            "2.0.0": "System maintenance and updates",
            "2.1.0": "System maintenance and updates",
            "2.2.0": "Compatibility for HB3",
            "2.3.0": "Compatibility for HB3",
            "2.3.1": "Compatibility for HB3",
            "2.3.2": "Compatibility for HB3",
            "2.4.0": "Compatibility for HB3",
            "2.4.1": "Compatibility for HB3"
        },
        "dependancies": []
    }
}